%YAML 1.1
%TAG !u! tag:unity3d.com,2011:
--- !u!78 &1
TagManager:
  serializedVersion: 2
  tags: []
  layers:
  - Default
  - TransparentFX
  - Ignore Raycast
  - 
  - Water
  - UI
  - Mushroom1
  - Mushroom2
  - Mushroom3
  - Mushroom4
  - 
  - 
  - 
  - 
  - 
  - 
  - 
  - 
  - 
  - 
  - 
  - 
  - 
  - 
  - 
  - 
  - 
  - 
  - 
  - 
  - 
  - 
  m_SortingLayers:
  - name: Default
    uniqueID: 0
    locked: 0
